jbiadmin03002 : Test fix for CR 6532519 - not able to start system components in standalone instance
Starting domain ESBTest
Deleting instance esbinst1
Starting sun-http-binding on target esbinst1
  ERROR:(UICMN2817)Component with name sun-http-binding is not registered in target esbinst1.
CLI137 Command start-jbi-component failed.
Deleting node agent config for esbagent1
Deleting node agent esbagent1
Stopping domain ESBTest
