jbiadmin01310 - Negative test for component installation with target=cluster ( Fix for CR 6514223 )
IGNORE JBI_HOME is C:/chikkala/dev/open-esb-dev/main/open-esb/install/as8/jbi
IGNORE JBI_DOMAIN_ROOT is C:/chikkala/dev/open-esb-dev/main/open-esb/install/as8/domains/CAS
jbi_instance_name is server
IGNORE jmx.provider is service:jmx:rmi:///jndi/rmi://maui:8989/management/rmi-jmx-connector

BUILD SUCCESSFUL
IGNORE Total time: 1 second
Installing a component
IGNORE   jmx connection info: (host=localhost, port=5151, secure=true, username=admin, target=cluster1 )
IGNORE   file=C:/chikkala/dev/open-esb-dev/main/open-esb/runtime/esb-manage/bld/test-classes/dist/bad-install-binding.jar
Install component failed. [
Instance: cluster1-instance1
  ERROR:(JBIFW1107)Installation of Binding bad-install-binding failed. The bootstrap onInstall() method threw a javax.jbi.JBIException exception. The exception message is: <component-task-result xmlns="http://java.sun.com/xml/ns/jbi/management-message"><component-name>null</component-name><component-task-result-details><task-result-details><task-id>onInstall</task-id><task-result>FAILED</task-result><message-type>ERROR</message-type><task-status-msg><msg-loc-info><loc-token>JBIWHOOPS</loc-token><loc-message>Component install failed</loc-message></msg-loc-info></task-status-msg></task-result-details></component-task-result-details></component-task-result>
    Caused by:(JBIMA0000)<component-task-result xmlns="http://java.sun.com/xml/ns/jbi/management-message"><component-name>null</component-name><component-task-result-details><task-result-details><task-id>onInstall</task-id><task-result>FAILED</task-result><message-type>ERROR</message-type><task-status-msg><msg-loc-info><loc-token>JBIWHOOPS</loc-token><loc-message>Component install failed</loc-message></msg-loc-info></task-status-msg></task-result-details></component-task-result-details></component-task-result>
Instance: cluster1-instance2
  ERROR:(JBIFW1107)Installation of Binding bad-install-binding failed. The bootstrap onInstall() method threw a javax.jbi.JBIException exception. The exception message is: <component-task-result xmlns="http://java.sun.com/xml/ns/jbi/management-message"><component-name>null</component-name><component-task-result-details><task-result-details><task-id>onInstall</task-id><task-result>FAILED</task-result><message-type>ERROR</message-type><task-status-msg><msg-loc-info><loc-token>JBIWHOOPS</loc-token><loc-message>Component install failed</loc-message></msg-loc-info></task-status-msg></task-result-details></component-task-result-details></component-task-result>
    Caused by:(JBIMA0000)<component-task-result xmlns="http://java.sun.com/xml/ns/jbi/management-message"><component-name>null</component-name><component-task-result-details><task-result-details><task-id>onInstall</task-id><task-result>FAILED</task-result><message-type>ERROR</message-type><task-status-msg><msg-loc-info><loc-token>JBIWHOOPS</loc-token><loc-message>Component install failed</loc-message></msg-loc-info></task-status-msg></task-result-details></component-task-result-details></component-task-result>
]

BUILD SUCCESSFUL
IGNORE Total time: 2 seconds
