
-------------------------------------------------------------------
 Start Test : jbi-admin-cli00013
 Description: Test Show Statistics
-------------------------------------------------------------------
-------------------------------------------------------------------
 Building the test artifacts
-------------------------------------------------------------------
-------------------------------------------------------------------
 Building and packaging the test simple test engine with endpoints
-------------------------------------------------------------------

BUILD SUCCESSFUL
IGNORE Total time: 1 second
Deployed service assembly PingApp.
Started service assembly PingApp.

-------------------------------------------------------------------
 Show the service assembly with the descriptor for the PingApp
-------------------------------------------------------------------
show-jbi-service-assembly --descriptormsg PingApp

Service Assembly Information
----------------------------
Name          : PingApp
State         : Started
Service Units : 1
Description   : Represents the Service Assembly


    Service Unit Information
    ------------------------
    Name        : PingApp-sun-http-binding
    State       : Started
    Deployed On : sun-http-binding
    Description : Represents this Service Unit

 
Component Descriptor
--------------------
<?xml version="1.0" encoding="UTF-8"?>
<!--
 # BEGIN_HEADER - DO NOT EDIT
 #
 # The contents of this file are subject to the terms
 # of the Common Development and Distribution License
 # (the "License").  You may not use this file except
 # in compliance with the License.
 #
 # You can obtain a copy of the license at
 # https://open-esb.dev.java.net/public/CDDLv1.0.html.
 # See the License for the specific language governing
 # permissions and limitations under the License.
 #
 # When distributing Covered Code, include this CDDL
 # HEADER in each file and include the License file at
 # https://open-esb.dev.java.net/public/CDDLv1.0.html.
 # If applicable add the following below this CDDL HEADER,
 # with the fields enclosed by brackets "[]" replaced with
 # your own identifying information: Portions Copyright
 # [year] [name of copyright owner]
-->
<!--
 # @(#)ping-sa.xml
 # Copyright 2004-2007 Sun Microsystems, Inc. All Rights Reserved.
 #
 # END_HEADER - DO NOT EDIT
-->
<!-- Service Assembly Deployment Descriptor -->
IGNORE <jbi xmlns="http://java.sun.com/xml/ns/jbi" version="1.0" xsi:schemaLocation="http://java.sun.com/xml/ns/jbi ./jbi.xsd" xmlns:ns1="http://ping" xmlns:xsi="http://www.w3.org/2001/XMLSchema-instance">

    <service-assembly>
	
        <identification>
            <name>PingApp</name>
            <description>Represents the Service Assembly</description>
	</identification>

        <service-unit>
            <identification>
                <name>PingApp-sun-http-binding</name>
                <description>Represents this Service Unit</description>
            </identification>
            <target>
                <artifacts-zip>httpbc-su.jar</artifacts-zip>
                <component-name>sun-http-binding</component-name>
            </target>
	</service-unit>


        <connections>
            <connection>
                <consumer endpoint-name="ConsumingPingPort" service-name="ns1:PingService"/>
                <provider endpoint-name="PingPort" service-name="ns1:PingService"/>
            </connection>
        </connections>
        
</service-assembly>
</jbi>

Command show-jbi-service-assembly executed successfully.

-------------------------------------------------------------------
 Set a Runtime Configuration value msgSvcTimingStatisticsEnabled=false
-------------------------------------------------------------------
set-jbi-runtime-configuration msgSvcTimingStatisticsEnabled=false
Command set-jbi-runtime-configuration executed successfully.

-------------------------------------------------------------------
 Show the stats for the Framework
-------------------------------------------------------------------
show-jbi-statistics --framework
 
Framework Statistics
--------------------
Instance Name    : server
IGNORE Start Up Time(ms): 3004
IGNORE Total Up Time    : 0 Days, 0 Hours, 0 Minutes, 8.633 Seconds
 
Command show-jbi-statistics executed successfully.

-------------------------------------------------------------------
 Show the stats for the Component SimpleTestEngine
-------------------------------------------------------------------
show-jbi-statistics --component=SimpleTestEngine
 
Component Statistics
--------------------
Component Name  : SimpleTestEngine
IGNORE Instance Name   : server
IGNORE Total Up Time   : 0 Days, 0 Hours, 0 Minutes, 2.534 Seconds
Active Endpoints: 0
 
    Received Statistics
    -------------------
IGNORE     Requests Received: 0
IGNORE     Replies Received : 0
IGNORE     DONEs Received   : 0
IGNORE     Faults Received  : 0
IGNORE     Errors Received  : 1
 
    Sent Statistics
    ---------------
IGNORE     Requests Sent: 1
IGNORE     Replies Sent : 0
IGNORE     DONEs Sent   : 0
IGNORE     Faults Sent  : 0
IGNORE     Errors Sent  : 0
 
    Exchanges Statistics
    --------------------
    Completed Exchanges    : 1
    Active Exchanges       : 0
IGNORE    Active Exchanges Max   : 0
    Queued Exchanges       : 0
IGNORE    Queued Exchanges Max   : 0
    Error Exchanges        : 1
 
    Message Exchange Statistics
    ---------------------------
    No timing statistics are available.  To enable timing statistics, the runtime 
    configuration property "msgScvTimingStatisticsEnabled" must be set to true.
 
Command show-jbi-statistics executed successfully.

-------------------------------------------------------------------
 Show the stats for the Service Assembly
-------------------------------------------------------------------
show-jbi-statistics --serviceassembly=PingApp
 
Service Assembly Statistics
---------------------------
Service Assembly Name  : PingApp
IGNORE Instance Name          : server
IGNORE Last Start Up Time     : Thu Apr 10 16:59:06 MDT 2008
IGNORE Avg. Start Up Time(ms) : 1843
 
    Service Unit Statistics
    -----------------------
    Service Unit Name      : PingApp-sun-http-binding
IGNORE     Avg. Start Up Time(ms) : 1823
 
Command show-jbi-statistics executed successfully.

-------------------------------------------------------------------
 Show the stats for the Endpoint (Provider)
-------------------------------------------------------------------
show-jbi-statistics --endpoint=http://ping,PingService,PingPort
 
Endpoint Statistics
-------------------
Endpoint Name: http://ping,PingService,PingPort
Endpoint Type: Provider
Instance Name: server
 
    Time Statistics
    ---------------
IGNORE     Activation Time: Thu Apr 10 16:59:05 MDT 2008
IGNORE     Total Up Time  : 0 Days, 0 Hours, 0 Minutes, 8.543 Seconds
 
    Received Statistics
    -------------------
IGNORE     Requests Received: 0
IGNORE     DONEs Received   : 0
IGNORE     Faults Received  : 0
IGNORE     Errors Received  : 0
 
    Sent Statistics
    ---------------
IGNORE     Replies Sent: 0
IGNORE     DONEs Sent  : 0
IGNORE     Faults Sent : 0
IGNORE     Errors Sent : 1
 
    Message Exchange Statistics
    ---------------------------
    No timing statistics are available.  To enable timing statistics, the runtime 
    configuration property "msgScvTimingStatisticsEnabled" must be set to true.
 
    Performance Instrumentation Data
    --------------------------------
IGNORE     act             : 0
IGNORE     average (ms)    : 26.635508
IGNORE     average' (ms)   : 26.635508
IGNORE     first (ms)      : 26.635508
IGNORE     last-first (ms) : 26.636626000000135
IGNORE     load            : NaN
IGNORE     median (ms)     : 28.963093757400983
IGNORE     n               : 1
IGNORE     source          : com.sun.jbi.httpsoapbc.OutboundMessageProcessor
IGNORE     sub topic       : Denormalization
IGNORE     throughput (s-1): 37.54229374029208
IGNORE     topic           : http://ping,PingService,PingPort,Provider
IGNORE     total time (ms) : 26.635508
 
Command show-jbi-statistics executed successfully.

-------------------------------------------------------------------
 Show the stats for the Endpoint (Consumer)
-------------------------------------------------------------------
show-jbi-statistics --endpoint=http://ping,PingService,ConsumingPingPort
 
Endpoint Statistics
-------------------
Endpoint Name: http://ping,PingService,ConsumingPingPort
Endpoint Type: Consumer
Instance Name: server
 
    Received Statistics
    -------------------
IGNORE     Replies Received: 0
IGNORE     DONEs Received  : 0
IGNORE     Faults Received : 0
IGNORE     Errors Received : 1
 
    Sent Statistics
    ---------------
IGNORE     Requests Sent: 1
IGNORE     DONEs Sent   : 0
IGNORE     Faults Sent  : 0
IGNORE     Errors Sent  : 0
 
    Message Exchange Statistics
    ---------------------------
    No timing statistics are available.  To enable timing statistics, the runtime 
    configuration property "msgScvTimingStatisticsEnabled" must be set to true.
 
Command show-jbi-statistics executed successfully.

-------------------------------------------------------------------
 Set a Runtime Configuration value msgSvcTimingStatisticsEnabled=true
-------------------------------------------------------------------
set-jbi-runtime-configuration msgSvcTimingStatisticsEnabled=true
Command set-jbi-runtime-configuration executed successfully.

-------------------------------------------------------------------
 Stop the component SimpleTestEngine
-------------------------------------------------------------------
stop-jbi-component SimpleTestEngine
Stopped component SimpleTestEngine.

-------------------------------------------------------------------
 Shut down the component SimpleTestEngine
-------------------------------------------------------------------
shut-down-jbi-component SimpleTestEngine
Shut Down component SimpleTestEngine.

-------------------------------------------------------------------
 Start the component SimpleTestEngine
-------------------------------------------------------------------
start-jbi-component SimpleTestEngine
Started component SimpleTestEngine.

-------------------------------------------------------------------
 Show the stats for the Component SimpleTestEngine
-------------------------------------------------------------------
show-jbi-statistics --component=SimpleTestEngine
 
Component Statistics
--------------------
Component Name  : SimpleTestEngine
Instance Name   : server
IGNORE Total Up Time   : 0 Days, 0 Hours, 0 Minutes, 0.792 Seconds
Active Endpoints: 0
 
    Received Statistics
    -------------------
IGNORE     Requests Received: 0
IGNORE     Replies Received : 0
IGNORE     DONEs Received   : 0
IGNORE     Faults Received  : 0
IGNORE     Errors Received  : 1
 
    Sent Statistics
    ---------------
IGNORE     Requests Sent: 1
IGNORE     Replies Sent : 0
IGNORE     DONEs Sent   : 0
IGNORE     Faults Sent  : 0
IGNORE     Errors Sent  : 0
 
    Exchanges Statistics
    --------------------
IGNORE     Completed Exchanges    : 1
IGNORE     Active Exchanges       : 0
IGNORE     Active Exchanges Max   : 0
IGNORE     Queued Exchanges       : 0
IGNORE     Queued Exchanges Max   : 0
IGNORE     Error Exchanges        : 1
 
    Message Exchange Statistics
    ---------------------------
IGNORE     Avg. Response Time (ns)                 : 0
IGNORE     Avg. Status Time (ns)                   : 0
IGNORE     Avg. Time spent in sun-http-binding (ns): 0
IGNORE     Avg. Time spent in Delivery Channel (ns): 184940
IGNORE     Avg. Time spent in Message Service (ns) : 156724
 
Command show-jbi-statistics executed successfully.
-------------------------------------------------------------------
 Show the stats for the Endpoint (Provider)
-------------------------------------------------------------------
show-jbi-statistics --endpoint=http://ping,PingService,PingPort
 
Endpoint Statistics
-------------------
Endpoint Name: http://ping,PingService,PingPort
Endpoint Type: Provider
Instance Name: server
 
    Time Statistics
    ---------------
IGNORE     Activation Time: Thu Apr 10 16:59:05 MDT 2008
IGNORE     Total Up Time  : 0 Days, 0 Hours, 0 Minutes, 14.021 Seconds
 
    Received Statistics
    -------------------
IGNORE     Requests Received: 0
IGNORE     DONEs Received   : 0
IGNORE     Faults Received  : 0
IGNORE     Errors Received  : 0
 
    Sent Statistics
    ---------------
IGNORE     Replies Sent: 0
IGNORE     DONEs Sent  : 0
IGNORE     Faults Sent : 0
IGNORE     Errors Sent : 2
 
    Message Exchange Statistics
    ---------------------------
IGNORE     Avg. Response Time(ns)         : 2572394
IGNORE     Avg. Component Time(ns)        : 2202235
IGNORE     Avg. Delivery Channel Time (ns): 28495
IGNORE     Avg. Message Service Time (ns) : 156724
 
    Performance Instrumentation Data
    --------------------------------
IGNORE     act             : 0
IGNORE     average (ms)    : 13.389551
IGNORE     average' (ms)   : 0.14359400000000022
IGNORE     first (ms)      : 26.635508
IGNORE     last-first (ms) : 8540.070037
IGNORE     load            : 0.0031357005138265594
IGNORE     median (ms)     : 0.16
IGNORE     n               : 2
IGNORE     source          : com.sun.jbi.httpsoapbc.OutboundMessageProcessor
IGNORE     sub topic       : Denormalization
IGNORE     throughput (s-1): 0.23419011686496313
IGNORE     topic           : http://ping,PingService,PingPort,Provider
IGNORE     total time (ms) : 26.779102
 
Command show-jbi-statistics executed successfully.

-------------------------------------------------------------------
 Show the stats for the Endpoint (Consumer)
-------------------------------------------------------------------
show-jbi-statistics --endpoint=http://ping,PingService,ConsumingPingPort
 
Endpoint Statistics
-------------------
Endpoint Name: http://ping,PingService,ConsumingPingPort
Endpoint Type: Consumer
Instance Name: server
 
    Received Statistics
    -------------------
IGNORE     Replies Received: 0
IGNORE     DONEs Received  : 0
IGNORE     Faults Received : 0
IGNORE     Errors Received : 2
 
    Sent Statistics
    ---------------
IGNORE     Requests Sent: 2
IGNORE     DONEs Sent   : 0
IGNORE     Faults Sent  : 0
IGNORE     Errors Sent  : 0
 
    Message Exchange Statistics
    ---------------------------
IGNORE     Avg. Component Time(ns)        : 2202235
IGNORE     Avg. Delivery Channel Time (ns): 28495
IGNORE     Avg. Message Service Time (ns) : 156724
IGNORE     Avg. Message Exchange Time (ns): 0
 
Command show-jbi-statistics executed successfully.

-------------------------------------------------------------------
 Set a Runtime Configuration value msgSvcTimingStatisticsEnabled=false
-------------------------------------------------------------------
set-jbi-runtime-configuration msgSvcTimingStatisticsEnabled=false
Command set-jbi-runtime-configuration executed successfully.

-------------------------------------------------------------------
 Show the stats for the Component SimpleTestEngine
-------------------------------------------------------------------
show-jbi-statistics --component=SimpleTestEngine
 
Component Statistics
--------------------
Component Name  : SimpleTestEngine
Instance Name   : server
IGNORE Total Up Time   : 0 Days, 0 Hours, 0 Minutes, 3.846 Seconds
Active Endpoints: 0
 
    Received Statistics
    -------------------
IGNORE     Requests Received: 0
IGNORE     Replies Received : 0
IGNORE     DONEs Received   : 0
IGNORE     Faults Received  : 0
IGNORE     Errors Received  : 1
 
    Sent Statistics
    ---------------
IGNORE     Requests Sent: 1
IGNORE     Replies Sent : 0
IGNORE     DONEs Sent   : 0
IGNORE     Faults Sent  : 0
IGNORE     Errors Sent  : 0
 
    Exchanges Statistics
    --------------------
IGNORE     Completed Exchanges    : 1
IGNORE     Active Exchanges       : 0
IGNORE     Active Exchanges Max   : 0
IGNORE     Queued Exchanges       : 0
IGNORE     Queued Exchanges Max   : 0
IGNORE     Error Exchanges        : 1
 
    Message Exchange Statistics
    ---------------------------
IGNORE     Avg. Response Time (ns)                 : 0
IGNORE     Avg. Status Time (ns)                   : 0
IGNORE     Avg. Time spent in sun-http-binding (ns): 0
IGNORE     Avg. Time spent in Delivery Channel (ns): 184940
IGNORE     Avg. Time spent in Message Service (ns) : 156724
 
Command show-jbi-statistics executed successfully.
-------------------------------------------------------------------
 Show the stats for the Endpoint (Provider)
-------------------------------------------------------------------
show-jbi-statistics --endpoint=http://ping,PingService,PingPort
 
Endpoint Statistics
-------------------
Endpoint Name: http://ping,PingService,PingPort
Endpoint Type: Provider
Instance Name: server
 
    Time Statistics
    ---------------
IGNORE     Activation Time: Thu Apr 10 16:59:05 MDT 2008
IGNORE     Total Up Time  : 0 Days, 0 Hours, 0 Minutes, 17.105 Seconds
 
    Received Statistics
    -------------------
IGNORE     Requests Received: 0
IGNORE     DONEs Received   : 0
IGNORE     Faults Received  : 0
IGNORE     Errors Received  : 0
 
    Sent Statistics
    ---------------
IGNORE     Replies Sent: 0
IGNORE     DONEs Sent  : 0
IGNORE     Faults Sent : 0
IGNORE     Errors Sent : 2
 
    Message Exchange Statistics
    ---------------------------
IGNORE     Avg. Response Time(ns)         : 2572394
IGNORE     Avg. Component Time(ns)        : 2202235
IGNORE     Avg. Delivery Channel Time (ns): 28495
IGNORE     Avg. Message Service Time (ns) : 156724
 
    Performance Instrumentation Data
    --------------------------------
IGNORE     act             : 0
IGNORE     average (ms)    : 13.389551
IGNORE     average' (ms)   : 0.14359400000000022
IGNORE     first (ms)      : 26.635508
IGNORE     last-first (ms) : 8540.070036
IGNORE     load            : 0.0031357005134593843
IGNORE     median (ms)     : 0.16
IGNORE     n               : 2
IGNORE     source          : com.sun.jbi.httpsoapbc.OutboundMessageProcessor
IGNORE     sub topic       : Denormalization
IGNORE     throughput (s-1): 0.23419011689238567
IGNORE     topic           : http://ping,PingService,PingPort,Provider
IGNORE     total time (ms) : 26.779102
 
Command show-jbi-statistics executed successfully.

-------------------------------------------------------------------
 Show the stats for the Endpoint (Consumer)
-------------------------------------------------------------------
show-jbi-statistics --endpoint=http://ping,PingService,ConsumingPingPort
 
Endpoint Statistics
-------------------
Endpoint Name: http://ping,PingService,ConsumingPingPort
Endpoint Type: Consumer
Instance Name: server
 
    Received Statistics
    -------------------
IGNORE     Replies Received: 0
IGNORE     DONEs Received  : 0
IGNORE     Faults Received : 0
IGNORE     Errors Received : 2
 
    Sent Statistics
    ---------------
IGNORE     Requests Sent: 2
IGNORE     DONEs Sent   : 0
IGNORE     Faults Sent  : 0
IGNORE     Errors Sent  : 0
 
    Message Exchange Statistics
    ---------------------------
IGNORE     Avg. Component Time(ns)        : 2202235
IGNORE     Avg. Delivery Channel Time (ns): 28495
IGNORE     Avg. Message Service Time (ns) : 156724
IGNORE     Avg. Message Exchange Time (ns): 0
 
Command show-jbi-statistics executed successfully.

-------------------------------------------------------------------
 Stop the component SimpleTestEngine
-------------------------------------------------------------------
stop-jbi-component SimpleTestEngine
Stopped component SimpleTestEngine.

-------------------------------------------------------------------
 Shut down the component SimpleTestEngine
-------------------------------------------------------------------
shut-down-jbi-component SimpleTestEngine
Shut Down component SimpleTestEngine.

-------------------------------------------------------------------
 Start the component SimpleTestEngine
-------------------------------------------------------------------
start-jbi-component SimpleTestEngine
Started component SimpleTestEngine.

-------------------------------------------------------------------
 Show the stats for the Component SimpleTestEngine
-------------------------------------------------------------------
show-jbi-statistics --component=SimpleTestEngine
 
Component Statistics
--------------------
Component Name  : SimpleTestEngine
Instance Name   : server
IGNORE Total Up Time   : 0 Days, 0 Hours, 0 Minutes, 0.781 Seconds
Active Endpoints: 0
 
    Received Statistics
    -------------------
IGNORE     Requests Received: 0
IGNORE     Replies Received : 0
IGNORE     DONEs Received   : 0
IGNORE     Faults Received  : 0
IGNORE    Errors Received  : 1
 
    Sent Statistics
    ---------------
IGNORE     Requests Sent: 1
IGNORE     Replies Sent : 0
IGNORE     DONEs Sent   : 0
IGNORE     Faults Sent  : 0
IGNORE     Errors Sent  : 0
 
    Exchanges Statistics
    --------------------
IGNORE     Completed Exchanges    : 1
IGNORE     Active Exchanges       : 0
IGNORE     Active Exchanges Max   : 0
IGNORE     Queued Exchanges       : 0
IGNORE     Queued Exchanges Max   : 0
IGNORE     Error Exchanges        : 1
 
    Message Exchange Statistics
    ---------------------------
    No timing statistics are available.  To enable timing statistics, the runtime 
    configuration property "msgScvTimingStatisticsEnabled" must be set to true.
 
Command show-jbi-statistics executed successfully.
-------------------------------------------------------------------
 Show the stats for the Endpoint (Provider)
-------------------------------------------------------------------
show-jbi-statistics --endpoint=http://ping,PingService,PingPort
 
Endpoint Statistics
-------------------
Endpoint Name: http://ping,PingService,PingPort
Endpoint Type: Provider
Instance Name: server
 
    Time Statistics
    ---------------
IGNORE     Activation Time: Thu Apr 10 16:59:05 MDT 2008
IGNORE     Total Up Time  : 0 Days, 0 Hours, 0 Minutes, 21.762 Seconds
 
    Received Statistics
    -------------------
IGNORE     Requests Received: 0
IGNORE     DONEs Received   : 0
IGNORE     Faults Received  : 0
IGNORE     Errors Received  : 0
 
    Sent Statistics
    ---------------
IGNORE     Replies Sent: 0
IGNORE     DONEs Sent  : 0
IGNORE     Faults Sent : 0
IGNORE     Errors Sent : 3
 
    Message Exchange Statistics
    ---------------------------
IGNORE     Avg. Response Time(ns)         : 2572394
IGNORE     Avg. Component Time(ns)        : 2202235
IGNORE     Avg. Delivery Channel Time (ns): 28495
IGNORE     Avg. Message Service Time (ns) : 156724
 
    Performance Instrumentation Data
    --------------------------------
IGNORE     act             : 0
IGNORE     average (ms)    : 8.965851
IGNORE     average' (ms)   : 0.13102250000000026
IGNORE     first (ms)      : 26.635508
IGNORE     last-first (ms) : 16250.68214
IGNORE     load            : 0.0016551645506282216
IGNORE     median (ms)     : 0.13454342644059433
IGNORE     n               : 3
IGNORE     source          : com.sun.jbi.httpsoapbc.OutboundMessageProcessor
IGNORE     sub topic       : Denormalization
IGNORE     throughput (s-1): 0.184607635184476
IGNORE     topic           : http://ping,PingService,PingPort,Provider
IGNORE     total time (ms) : 26.897553000000002
 
Command show-jbi-statistics executed successfully.

-------------------------------------------------------------------
 Show the stats for the Endpoint (Consumer)
-------------------------------------------------------------------
show-jbi-statistics --endpoint=http://ping,PingService,ConsumingPingPort
 
Endpoint Statistics
-------------------
Endpoint Name: http://ping,PingService,ConsumingPingPort
Endpoint Type: Consumer
Instance Name: server
 
    Received Statistics
    -------------------
IGNORE     Replies Received: 0
IGNORE     DONEs Received  : 0
IGNORE     Faults Received : 0
IGNORE     Errors Received : 3
 
    Sent Statistics
    ---------------
IGNORE     Requests Sent: 3
IGNORE     DONEs Sent   : 0
IGNORE     Faults Sent  : 0
IGNORE     Errors Sent  : 0
 
    Message Exchange Statistics
    ---------------------------
IGNORE     Avg. Component Time(ns)        : 2202235
IGNORE     Avg. Delivery Channel Time (ns): 28495
IGNORE     Avg. Message Service Time (ns) : 156724
IGNORE     Avg. Message Exchange Time (ns): 0
 
Command show-jbi-statistics executed successfully.

-------------------------------------------------------------------
 Show the stats for the Component sun-http-binding
-------------------------------------------------------------------
show-jbi-statistics --component=sun-http-binding
 
Component Statistics
--------------------
IGNORE Component Name  : sun-http-binding
IGNORE Instance Name   : server
IGNORE IGNORE Total Up Time   : 0 Days, 0 Hours, 0 Minutes, 25.767 Seconds
IGNORE Active Endpoints: 2
 
    Received Statistics
    -------------------
IGNORE     Requests Received: 8
IGNORE     Replies Received : 0
IGNORE     DONEs Received   : 0
IGNORE     Faults Received  : 0
IGNORE     Errors Received  : 0
 
    Sent Statistics
    ---------------
IGNORE     Requests Sent: 0
IGNORE     Replies Sent : 0
IGNORE     DONEs Sent   : 0
IGNORE     Faults Sent  : 0
IGNORE     Errors Sent  : 8
 
    Exchanges Statistics
    --------------------
IGNORE     Completed Exchanges    : 3
IGNORE     Active Exchanges       : 0
IGNORE     Active Exchanges Max   : 0
IGNORE     Queued Exchanges       : 0
IGNORE     Queued Exchanges Max   : 0
IGNORE     Error Exchanges        : 3
 
    Message Exchange Statistics
    ---------------------------
IGNORE     Avg. Response Time (ns)                 : 2572394
IGNORE     Avg. Status Time (ns)                   : 0
IGNORE     Avg. Time spent in sun-http-binding (ns): 2202235
IGNORE     Avg. Time spent in Delivery Channel (ns): 28495
IGNORE     Avg. Time spent in Message Service (ns) : 156724
 
    Component Provided Statistics
    -----------------------------
IGNORE     ShortDisplayName     : sun-http-bc
IGNORE     TotalDone            : 0
IGNORE     TotalErrors          : 0
IGNORE     TotalReceivedDones   : 0
IGNORE     TotalReceivedErrors  : 0
IGNORE     TotalReceivedReplies : 0
IGNORE     TotalReceivedRequests: 3
IGNORE     TotalReplies         : 3
IGNORE     TotalRequests        : 3
IGNORE     TotalSentDones       : 0
IGNORE     TotalSentErrors      : 0
IGNORE     TotalSentReplies     : 3
IGNORE     TotalSentRequests    : 0
 
        ProvisioningEndpoints
        ---------------------
IGNORE        0: http://ping,PingService,PingPort,Provider
 
        PerformanceMeasurementCategories
        --------------------------------
IGNORE         0: Normalization
IGNORE         1: Denormalization
 
        ConsumingEndpoints
        ------------------
 
Command show-jbi-statistics executed successfully.
