
-------------------------------------------------------------------
 Start Test : jbi-admin-cli00004
 Description: Test Install, Deploy, Lifecycle and Show commands on server and domain targets.
-------------------------------------------------------------------
-------------------------------------------------------------------
 Building the test artifacts
-------------------------------------------------------------------

-------------------------------------------------------------------
 Install shared library cli_test_sns1 to the domain
-------------------------------------------------------------------
install-jbi-shared-library cli-test-sns1.jar
Installed shared library cli_test_sns1.

-------------------------------------------------------------------
 Install binding component cli_test_binding1 to the domain
-------------------------------------------------------------------
install-jbi-component cli-test-binding1.jar
Installed component cli_test_binding1.

-------------------------------------------------------------------
 Install service engine cli_test_engine1 to the domain
-------------------------------------------------------------------
install-jbi-component cli-test-engine1.jar
Installed component cli_test_engine1.

-------------------------------------------------------------------
 Deploy Service Assembly cli_test_assembly_unit_1 to the domain target
-------------------------------------------------------------------
deploy-jbi-service-assembly --target=domain cli-test-au1.zip
Deployed service assembly cli_test_assembly_unit_1.

-------------------------------------------------------------------
 List the service engines from the domain
-------------------------------------------------------------------
list-jbi-service-engines --target=domain
cli_test_engine1
sun-javaee-engine
Command list-jbi-service-engines executed successfully.

-------------------------------------------------------------------
 List the binding components from the domain
-------------------------------------------------------------------
list-jbi-binding-components --target=domain
cli_test_binding1
sun-http-binding
Command list-jbi-binding-components executed successfully.

-------------------------------------------------------------------
 List the shared libraries from the domain
-------------------------------------------------------------------
list-jbi-shared-libraries --target=domain
cli_test_sns1
Command list-jbi-shared-libraries executed successfully.

-------------------------------------------------------------------
 List the service assemblies from the domain
-------------------------------------------------------------------
list-jbi-service-assemblies --target=domain
cli_test_assembly_unit_1
Command list-jbi-service-assemblies executed successfully.

-------------------------------------------------------------------
 Install the Shared Library from the domain to the server
-------------------------------------------------------------------
install-jbi-shared-library --target=server cli_test_sns1
Installed shared library cli_test_sns1 from the domain.

-------------------------------------------------------------------
 Install the components from the domain to the server
-------------------------------------------------------------------
install-jbi-component --target=server cli_test_binding1
Installed component cli_test_binding1 from the domain.
install-jbi-component --target=server cli_test_engine1
Installed component cli_test_engine1 from the domain.

-------------------------------------------------------------------
 Show the components on the server, should be in the Shut Down state
-------------------------------------------------------------------
show-jbi-binding-component  cli_test_binding1

Component Information
---------------------
Name        : cli_test_binding1
State       : Shutdown
Version     : 1.0
Build Number: 080809
Description : cli test binding with shared namespace.
 
Command show-jbi-binding-component executed successfully.
show-jbi-service-engine  cli_test_engine1

Component Information
---------------------
Name        : cli_test_engine1
State       : Shutdown
Version     : 1.0
Build Number: 080809
Description : cli test engine with shared namespace.
 
Command show-jbi-service-engine executed successfully.

-------------------------------------------------------------------
 Start the Components on the server
-------------------------------------------------------------------
start-jbi-component cli_test_binding1
Started component cli_test_binding1.
start-jbi-component cli_test_engine1
Started component cli_test_engine1.

-------------------------------------------------------------------
 Show the components on the server
-------------------------------------------------------------------
show-jbi-binding-component --target=server cli_test_binding1

Component Information
---------------------
Name        : cli_test_binding1
State       : Started
Version     : 1.0
Build Number: 080809
Description : cli test binding with shared namespace.
 
Command show-jbi-binding-component executed successfully.
show-jbi-service-engine --target=server cli_test_engine1

Component Information
---------------------
Name        : cli_test_engine1
State       : Started
Version     : 1.0
Build Number: 080809
Description : cli test engine with shared namespace.
 
Command show-jbi-service-engine executed successfully.

-------------------------------------------------------------------
 Show the components on the domaine
-------------------------------------------------------------------
show-jbi-binding-component --target=domain cli_test_binding1

Component Information
---------------------
Name        : cli_test_binding1
State       : Started
Version     : 1.0
Build Number: 080809
Description : cli test binding with shared namespace.
 
Command show-jbi-binding-component executed successfully.
show-jbi-service-engine --target=domain cli_test_engine1

Component Information
---------------------
Name        : cli_test_engine1
State       : Started
Version     : 1.0
Build Number: 080809
Description : cli test engine with shared namespace.
 
Command show-jbi-service-engine executed successfully.

-------------------------------------------------------------------
 List the Service Assemblies from the server and from the domain 
-------------------------------------------------------------------
list-jbi-service-assemblies --target=server cli_test_assembly_unit_1
Nothing to list.
Command list-jbi-service-assemblies executed successfully.
list-jbi-service-assemblies --target=domain cli_test_assembly_unit_1
cli_test_assembly_unit_1
Command list-jbi-service-assemblies executed successfully.

-------------------------------------------------------------------
 Deploy Service Assembly cli_test_assembly_unit_1 from the domain to the server
-------------------------------------------------------------------
deploy-jbi-service-assembly --target=server cli_test_assembly_unit_1
Deployed service assembly cli_test_assembly_unit_1.

-------------------------------------------------------------------
 List the Service Assemblies from the server and from the domain
-------------------------------------------------------------------
list-jbi-service-assemblies --target=server cli_test_assembly_unit_1
cli_test_assembly_unit_1
Command list-jbi-service-assemblies executed successfully.
list-jbi-service-assemblies --target=domain cli_test_assembly_unit_1
cli_test_assembly_unit_1
Command list-jbi-service-assemblies executed successfully.

-------------------------------------------------------------------
 Undeploy Service Assembly from the server, but --keeparchive cli_test_assembly_unit_1
-------------------------------------------------------------------
undeploy-jbi-service-assembly --keeparchive cli_test_assembly_unit_1
Undeployed service assembly cli_test_assembly_unit_1.

-------------------------------------------------------------------
 List the Service Assemblies from the server and the domain
-------------------------------------------------------------------
list-jbi-service-assemblies --target=server cli_test_assembly_unit_1
Nothing to list.
Command list-jbi-service-assemblies executed successfully.
list-jbi-service-assemblies --target=domain cli_test_assembly_unit_1
cli_test_assembly_unit_1
Command list-jbi-service-assemblies executed successfully.

-------------------------------------------------------------------
 Undeploy Service Assembly cli_test_assembly_unit_1 from the domain
-------------------------------------------------------------------
undeploy-jbi-service-assembly --target=domain cli_test_assembly_unit_1
Undeployed service assembly cli_test_assembly_unit_1.

-------------------------------------------------------------------
 List the Service Assemblies from the server and domain
-------------------------------------------------------------------
list-jbi-service-assemblies --target=server cli_test_assembly_unit_1
Nothing to list.
Command list-jbi-service-assemblies executed successfully.
list-jbi-service-assemblies --target=domain cli_test_assembly_unit_1
Nothing to list.
Command list-jbi-service-assemblies executed successfully.

-------------------------------------------------------------------
 Stop the Components on the server
-------------------------------------------------------------------
stop-jbi-component cli_test_binding1
Stopped component cli_test_binding1.
stop-jbi-component cli_test_engine1
Stopped component cli_test_engine1.

-------------------------------------------------------------------
 Show the components on the server
-------------------------------------------------------------------
show-jbi-binding-component --target=server cli_test_binding1

Component Information
---------------------
Name        : cli_test_binding1
State       : Stopped
Version     : 1.0
Build Number: 080809
Description : cli test binding with shared namespace.
 
Command show-jbi-binding-component executed successfully.
show-jbi-service-engine --target=server cli_test_engine1

Component Information
---------------------
Name        : cli_test_engine1
State       : Stopped
Version     : 1.0
Build Number: 080809
Description : cli test engine with shared namespace.
 
Command show-jbi-service-engine executed successfully.

-------------------------------------------------------------------
 Shut Down the Components on the server
-------------------------------------------------------------------
shut-down-jbi-component cli_test_binding1
Shut Down component cli_test_binding1.
shut-down--jbi-component cli_test_engine1
Shut Down component cli_test_engine1.

-------------------------------------------------------------------
 Show the components on the server
-------------------------------------------------------------------
show-jbi-binding-component --target=server cli_test_binding1

Component Information
---------------------
Name        : cli_test_binding1
State       : Shutdown
Version     : 1.0
Build Number: 080809
Description : cli test binding with shared namespace.
 
Command show-jbi-binding-component executed successfully.
show-jbi-service-engine --target=server cli_test_engine1

Component Information
---------------------
Name        : cli_test_engine1
State       : Shutdown
Version     : 1.0
Build Number: 080809
Description : cli test engine with shared namespace.
 
Command show-jbi-service-engine executed successfully.

-------------------------------------------------------------------
 Uninstall the Components from the server
-------------------------------------------------------------------
uninstall-jbi-component --keeparchive cli_test_binding1
Uninstalled component cli_test_binding1.
uninstall-jbi-component --keeparchive cli_test_engine1
Uninstalled component cli_test_engine1.

-------------------------------------------------------------------
 Show the components on the server
-------------------------------------------------------------------
show-jbi-binding-component --target=server cli_test_binding1
CLI203 The specified component cli_test_binding1 does not exist.
show-jbi-service-engine --target=server cli_test_engine1
CLI203 The specified component cli_test_engine1 does not exist.

-------------------------------------------------------------------
 Install the components from the domain to the server
-------------------------------------------------------------------
install-jbi-component --target=server cli_test_binding1
Installed component cli_test_binding1 from the domain.
install-jbi-component --target=server cli_test_engine1
Installed component cli_test_engine1 from the domain.

-------------------------------------------------------------------
 Show the components on the server
-------------------------------------------------------------------
show-jbi-binding-component --target=server cli_test_binding1

Component Information
---------------------
Name        : cli_test_binding1
State       : Shutdown
Version     : 1.0
Build Number: 080809
Description : cli test binding with shared namespace.
 
Command show-jbi-binding-component executed successfully.
show-jbi-service-engine --target=server cli_test_engine1

Component Information
---------------------
Name        : cli_test_engine1
State       : Shutdown
Version     : 1.0
Build Number: 080809
Description : cli test engine with shared namespace.
 
Command show-jbi-service-engine executed successfully.

-------------------------------------------------------------------
 Show the components on the domain
-------------------------------------------------------------------
show-jbi-binding-component --target=domain cli_test_binding1

Component Information
---------------------
Name        : cli_test_binding1
State       : Shutdown
Version     : 1.0
Build Number: 080809
Description : cli test binding with shared namespace.
 
Command show-jbi-binding-component executed successfully.
show-jbi-service-engine --target=domain cli_test_engine1

Component Information
---------------------
Name        : cli_test_engine1
State       : Shutdown
Version     : 1.0
Build Number: 080809
Description : cli test engine with shared namespace.
 
Command show-jbi-service-engine executed successfully.

-------------------------------------------------------------------
 Uninstall the Components from the server and domain
-------------------------------------------------------------------
uninstall-jbi-component cli_test_binding1
Uninstalled component cli_test_binding1.
uninstall-jbi-component cli_test_engine1
Uninstalled component cli_test_engine1.

-------------------------------------------------------------------
 Show the components on the domain
-------------------------------------------------------------------
show-jbi-binding-component --target=domain cli_test_binding1
CLI203 The specified component cli_test_binding1 does not exist.
show-jbi-service-engine --target=domain cli_test_engine1
CLI203 The specified component cli_test_engine1 does not exist.

-------------------------------------------------------------------
 Uninstall the Shared Libraries from the server
-------------------------------------------------------------------
uninstall-jbi-shared-library --keeparchive cli_test_sns1
Uninstalled shared library cli_test_sns1.

-------------------------------------------------------------------
 List Shared Libraries
-------------------------------------------------------------------
list-jbi-shared-libraries --target=server

-------------------------------------------------------------------
 List Shared Libraries
-------------------------------------------------------------------
list-jbi-shared-libraries --target=domain
cli_test_sns1

-------------------------------------------------------------------
 Uninstall the Shared Libraries from the domain
-------------------------------------------------------------------
uninstall-jbi-shared-library --target=domain cli_test_sns1
Uninstalled shared library cli_test_sns1.

-------------------------------------------------------------------
 List Shared Libraries
-------------------------------------------------------------------
list-jbi-shared-libraries --target=domain
