pb00006 : proxy NMS performance test
Stop the Proxy Binding component
Stopped component SunProxyBinding.
Shutdown the Proxy Binding component
Shut Down component SunProxyBinding.
Uninstall tbe Proxy Binding component
Uninstalled component SunProxyBinding.
