IGNORE JBI_HOME is C:\cygwin\home\kcbabo\gfmerge\build\open-esb\install\as8/jbi
IGNORE JBI_DOMAIN_ROOT is C:/cygwin/home/kcbabo/gfmerge/build/open-esb/install/as8/domains/domain1
IGNORE jbi_instance_name is domain1
IGNORE jbi_target_name is server
IGNORE jmx.provider is service:jmx:rmi:///jndi/rmi://nullset:18686/management/rmi-jmx-connector
IGNORE deployroot is NOT_USED
Component name is SunFileBinding
Service Unit name is SunFileBinding_SAMPLE_SERVICE_UNIT
about to invoke mbean.
Service Unit deployment status :  'true'

BUILD SUCCESSFUL
IGNORE Total time: 2 seconds
