sequencingengine00005.ksh- Test MEPs - Sequencing engine test
IGNORE added manifest
IGNORE ignoring entry META-INF/
IGNORE adding: META-INF/jbi.xml(in = 993) (out= 402)(deflated 59%)
IGNORE adding: testengine1/(in = 0) (out= 0)(stored 0%)
IGNORE adding: testengine1/FooEngine$Receiver.class(in = 2034) (out= 975)(deflated 52%)
IGNORE adding: testengine1/FooEngine.class(in = 10440) (out= 4446)(deflated 57%)
IGNORE adding: testengine1/FooEngineBootstrap.class(in = 909) (out= 454)(deflated 50%)
IGNORE adding: testengine1/Payload.class(in = 1815) (out= 924)(deflated 49%)
IGNORE adding: testengine1/payload.xml(in = 75) (out= 48)(deflated 36%)
IGNORE added manifest
IGNORE ignoring entry META-INF/
IGNORE adding: META-INF/jbi.xml(in = 993) (out= 402)(deflated 59%)
IGNORE adding: testengine2/(in = 0) (out= 0)(stored 0%)
IGNORE adding: testengine2/FooEngine$Receiver.class(in = 2034) (out= 979)(deflated 51%)
IGNORE adding: testengine2/FooEngine.class(in = 10821) (out= 4627)(deflated 57%)
IGNORE adding: testengine2/FooEngineBootstrap.class(in = 909) (out= 454)(deflated 50%)
IGNORE adding: testengine2/Payload.class(in = 1815) (out= 925)(deflated 49%)
IGNORE adding: testengine2/payload.xml(in = 375) (out= 192)(deflated 48%)
Installing a component
IGNORE   jmx connection info: (host=localhost, port=31387, username=admin)
IGNORE   file=D:/chikkala/dev/jbi/dev/source/engine/sequencing/bld/regress/testengine1/testengine1.jar
Install component succeeded. [
TESTENGINE_ONE_FOR_SEQENGINE
]

BUILD SUCCESSFUL
IGNORE Total time: 3 seconds
Installing a component
IGNORE   jmx connection info: (host=localhost, port=31387, username=admin)
IGNORE   file=D:/chikkala/dev/jbi/dev/source/engine/sequencing/bld/regress/testengine2/testengine2.jar
Install component succeeded. [
TESTENGINE_TWO_FOR_SEQENGINE
]

BUILD SUCCESSFUL
IGNORE Total time: 3 seconds
Starting a component
IGNORE   jmx connection info: (host=localhost, port=31387, username=admin)
  name=TESTENGINE_ONE_FOR_SEQENGINE
Start component succeeded. [
TESTENGINE_ONE_FOR_SEQENGINE
]

BUILD SUCCESSFUL
IGNORE Total time: 3 seconds
Starting a component
IGNORE   jmx connection info: (host=localhost, port=31387, username=admin)
  name=TESTENGINE_TWO_FOR_SEQENGINE
Start component succeeded. [
TESTENGINE_TWO_FOR_SEQENGINE
]

BUILD SUCCESSFUL
IGNORE Total time: 4 seconds

Testing in-out with valid message
      1 

Stopping a component
IGNORE   jmx connection info: (host=localhost, port=31387, username=admin)
  name=TESTENGINE_ONE_FOR_SEQENGINE
Stop component succeeded. [
TESTENGINE_ONE_FOR_SEQENGINE
]

BUILD SUCCESSFUL
IGNORE Total time: 3 seconds
Shutting down a component
IGNORE   jmx connection info: (host=localhost, port=31387, username=admin)
  name=TESTENGINE_ONE_FOR_SEQENGINE
Shutdown component succeeded. [
TESTENGINE_ONE_FOR_SEQENGINE
]

BUILD SUCCESSFUL
IGNORE Total time: 3 seconds
Uninstalling a component
IGNORE   jmx connection info: (host=localhost, port=31387, username=admin)
  name=TESTENGINE_ONE_FOR_SEQENGINE
Uninstall component succeeded. [
TESTENGINE_ONE_FOR_SEQENGINE
]

BUILD SUCCESSFUL
IGNORE Total time: 3 seconds
Stopping a component
IGNORE   jmx connection info: (host=localhost, port=31387, username=admin)
  name=TESTENGINE_TWO_FOR_SEQENGINE
Stop component succeeded. [
TESTENGINE_TWO_FOR_SEQENGINE
]

BUILD SUCCESSFUL
IGNORE Total time: 3 seconds
Shutting down a component
IGNORE   jmx connection info: (host=localhost, port=31387, username=admin)
  name=TESTENGINE_TWO_FOR_SEQENGINE
Shutdown component succeeded. [
TESTENGINE_TWO_FOR_SEQENGINE
]

BUILD SUCCESSFUL
IGNORE Total time: 3 seconds
Uninstalling a component
IGNORE   jmx connection info: (host=localhost, port=31387, username=admin)
  name=TESTENGINE_TWO_FOR_SEQENGINE
Uninstall component succeeded. [
TESTENGINE_TWO_FOR_SEQENGINE
]

BUILD SUCCESSFUL
IGNORE Total time: 3 seconds
Completed Testing seq engine MEPs
