sequencingengine00007.ksh- undeploy Stop, shutdown and uninstall sequencing engine test
Stopping a component
IGNORE   jmx connection info: (host=localhost, port=31387, username=admin)
  name=SunSequencingEngine
Stop component succeeded. [
SunSequencingEngine
]

BUILD SUCCESSFUL
IGNORE Total time: 3 seconds
Shutting down a component
IGNORE   jmx connection info: (host=localhost, port=31387, username=admin)
  name=SunSequencingEngine
Shutdown component succeeded. [
SunSequencingEngine
]

BUILD SUCCESSFUL
IGNORE Total time: 3 seconds
Uninstalling a component
IGNORE   jmx connection info: (host=localhost, port=31387, username=admin)
  name=SunSequencingEngine
Uninstall component succeeded. [
SunSequencingEngine
]

BUILD SUCCESSFUL
IGNORE Total time: 3 seconds
Completed uninstalling sequencing engine
