
BUILD SUCCESSFUL
Total time: 0 seconds
[i18n-echo] Installing a component
IGNORE [i18n-echo]   jmx connection info: (host=localhost, port=8699, secure=false, username=admin, target=server )
IGNORE [i18n-echo]   file=C:/d/open5/open-esb/runtime/framework/bld/test-classes/dist/slow-engine.jar
[jbi-install-component] Install component succeeded. [
[jbi-install-component] test-slow-engine
[jbi-install-component] ]

BUILD SUCCESSFUL
Total time: 1 second
[i18n-echo] Installing a component
IGNORE [i18n-echo]   jmx connection info: (host=localhost, port=8699, secure=false, username=admin, target=server )
IGNORE [i18n-echo]   file=C:/d/open5/open-esb/runtime/framework/bld/test-classes/dist/fast-binding.jar
[jbi-install-component] Install component succeeded. [
[jbi-install-component] test-fast-binding
[jbi-install-component] ]

BUILD SUCCESSFUL
Total time: 1 second
[i18n-echo] Starting a component
IGNORE [i18n-echo]   jmx connection info: (host=localhost, port=8699, secure=false, username=admin, target=server )
[i18n-echo]   name=test-slow-engine
[jbi-start-component] Start component succeeded. [
[jbi-start-component] test-slow-engine
[jbi-start-component] ]

BUILD SUCCESSFUL
Total time: 0 seconds
[i18n-echo] Starting a component
IGNORE [i18n-echo]   jmx connection info: (host=localhost, port=8699, secure=false, username=admin, target=server )
[i18n-echo]   name=test-fast-binding
[jbi-start-component] Start component succeeded. [
[jbi-start-component] test-fast-binding
[jbi-start-component] ]

BUILD SUCCESSFUL
Total time: 0 seconds
[i18n-echo] Deploying a service assembly
IGNORE [i18n-echo]   jmx connection info: (host=localhost, port=8699, secure=false, username=admin, target=server )
IGNORE [i18n-echo]   file=C:/d/open5/open-esb/runtime/framework/bld/test-classes/dist/restart-sa-1.jar
[jbi-deploy-service-assembly] Service assembly deployment succeeded. [
[jbi-deploy-service-assembly] restart-sa-1
[jbi-deploy-service-assembly] ]

BUILD SUCCESSFUL
Total time: 1 second
[jbi-list-binding-components] ============================================================
[jbi-list-binding-components]   List of Binding Components for Target "server"
[jbi-list-binding-components] ============================================================
[jbi-list-binding-components] Name       : test-fast-binding
[jbi-list-binding-components] State      : Started
[jbi-list-binding-components] Description: Binding used for restart tests.
[jbi-list-binding-components] ------------------------------------------------------------

BUILD SUCCESSFUL
Total time: 0 seconds
[jbi-list-service-engines] ============================================================
[jbi-list-service-engines]   List of Service Engines for Target "server"
[jbi-list-service-engines] ============================================================
[jbi-list-service-engines] Name       : test-slow-engine
[jbi-list-service-engines] State      : Started
[jbi-list-service-engines] Description: Binding used for restart tests.
[jbi-list-service-engines] ------------------------------------------------------------

BUILD SUCCESSFUL
Total time: 0 seconds
[jbi-list-service-assemblies] ============================================================
[jbi-list-service-assemblies]   List of Service Assemblies for Target "server"
[jbi-list-service-assemblies] ============================================================
[jbi-list-service-assemblies] Name       : restart-sa-1
[jbi-list-service-assemblies] State      : Shutdown
[jbi-list-service-assemblies] Description: Service assembly used to test restart logic
[jbi-list-service-assemblies] Service units in this service assembly [2]
[jbi-list-service-assemblies]   Service unit : restart-su-1
[jbi-list-service-assemblies]     State      : Shutdown
[jbi-list-service-assemblies]     Deployed on: test-fast-binding
[jbi-list-service-assemblies]     Description: Test service unit #1
[jbi-list-service-assemblies]   Service unit : restart-su-1
[jbi-list-service-assemblies]     State      : Shutdown
[jbi-list-service-assemblies]     Deployed on: test-slow-engine
[jbi-list-service-assemblies]     Description: Test service unit #2
[jbi-list-service-assemblies] ------------------------------------------------------------

BUILD SUCCESSFUL
Total time: 0 seconds
IGNORE JBI framework has been unloaded.
IGNORE Unloading JBI framework in response to VM termination.
IGNORE JBI framework shutdown complete.
[jbi-list-binding-components] ============================================================
[jbi-list-binding-components]   List of Binding Components for Target "server"
[jbi-list-binding-components] ============================================================
[jbi-list-binding-components] Name       : test-fast-binding
[jbi-list-binding-components] State      : Started
[jbi-list-binding-components] Description: Binding used for restart tests.
[jbi-list-binding-components] ------------------------------------------------------------

BUILD SUCCESSFUL
Total time: 1 second
[jbi-list-service-engines] ============================================================
[jbi-list-service-engines]   List of Service Engines for Target "server"
[jbi-list-service-engines] ============================================================
[jbi-list-service-engines] Name       : test-slow-engine
[jbi-list-service-engines] State      : Started
[jbi-list-service-engines] Description: Binding used for restart tests.
[jbi-list-service-engines] ------------------------------------------------------------

BUILD SUCCESSFUL
Total time: 0 seconds
[jbi-list-service-assemblies] ============================================================
[jbi-list-service-assemblies]   List of Service Assemblies for Target "server"
[jbi-list-service-assemblies] ============================================================
[jbi-list-service-assemblies] Name       : restart-sa-1
[jbi-list-service-assemblies] State      : Shutdown
[jbi-list-service-assemblies] Description: Service assembly used to test restart logic
[jbi-list-service-assemblies] Service units in this service assembly [2]
[jbi-list-service-assemblies]   Service unit : restart-su-1
[jbi-list-service-assemblies]     State      : Shutdown
[jbi-list-service-assemblies]     Deployed on: test-fast-binding
[jbi-list-service-assemblies]     Description: Test service unit #1
[jbi-list-service-assemblies]   Service unit : restart-su-1
[jbi-list-service-assemblies]     State      : Shutdown
[jbi-list-service-assemblies]     Deployed on: test-slow-engine
[jbi-list-service-assemblies]     Description: Test service unit #2
[jbi-list-service-assemblies] ------------------------------------------------------------

BUILD SUCCESSFUL
Total time: 0 seconds
[i18n-echo] Undeploying a service assembly
IGNORE [i18n-echo]   jmx connection info: (host=localhost, port=8699, secure=false, username=admin, target=server )
[i18n-echo]   name=restart-sa-1
[jbi-undeploy-service-assembly] Service assembly undeployment succeeded. [
[jbi-undeploy-service-assembly] restart-sa-1
[jbi-undeploy-service-assembly] ]

BUILD SUCCESSFUL
Total time: 1 second
[i18n-echo] Shutting down a component
IGNORE [i18n-echo]   jmx connection info: (host=localhost, port=8699, secure=false, username=admin, target=server )
[i18n-echo]   name=test-slow-engine
[jbi-shut-down-component] Shutdown component succeeded. [
[jbi-shut-down-component] test-slow-engine
[jbi-shut-down-component] ]

BUILD SUCCESSFUL
Total time: 0 seconds
[i18n-echo] Shutting down a component
IGNORE [i18n-echo]   jmx connection info: (host=localhost, port=8699, secure=false, username=admin, target=server )
[i18n-echo]   name=test-fast-binding
[jbi-shut-down-component] Shutdown component succeeded. [
[jbi-shut-down-component] test-fast-binding
[jbi-shut-down-component] ]

BUILD SUCCESSFUL
Total time: 0 seconds
[i18n-echo] Uninstalling a component
IGNORE [i18n-echo]   jmx connection info: (host=localhost, port=8699, secure=false, username=admin, target=server )
[i18n-echo]   name=test-slow-engine
[jbi-uninstall-component] Uninstall component succeeded. [
[jbi-uninstall-component] test-slow-engine
[jbi-uninstall-component] ]

BUILD SUCCESSFUL
Total time: 1 second
[i18n-echo] Uninstalling a component
IGNORE [i18n-echo]   jmx connection info: (host=localhost, port=8699, secure=false, username=admin, target=server )
[i18n-echo]   name=test-fast-binding
[jbi-uninstall-component] Uninstall component succeeded. [
[jbi-uninstall-component] test-fast-binding
[jbi-uninstall-component] ]

BUILD SUCCESSFUL
Total time: 1 second
IGNORE JBI framework has been unloaded.
IGNORE Unloading JBI framework in response to VM termination.
IGNORE JBI framework shutdown complete.
